[
	{
		"id" : "1" ,
		"title" : "อาจารย์ในร้านคุกกี้ " ,
		"author" : "นิ้วกลม" ,
		"price" : 0 ,
		"categories" : "วรรณกรรม" ,
		"description" : "หนังสือเล่มใหม่ของนักเขียนหน้าเก่า นิ้วกลม มาพร้อมกับแง่คิดในมุมใหม่ ๆ ที่เกิดจากการเก็บเกี่ยวทุกสิ่งทุกอย่างรอบตัวมาเป็นอาจารย์ของเขาได้อย่างน่ามหัศจรรย์" ,
		"cover" : "http://th.jobsdb.com/TH/TH/V6HTML/JobSeeker/book/images/oct09-02-ss.jpg" ,
		"download" : 223 ,
		"rating" : { "stars" : 4 , "raters" : 24 } 
	}, 
	{
		"id" : "2" ,
		"title" : "White Ocean Strategy กลยุทธ์น่านน้ำสีขาว" ,
		"author" : "ดนัย จันทร์เจ้าฉาย " ,
		"price" : 0 ,
		"categories" : "ธุรกิจ" ,
		"description" : "White Ocean Strategy แนวคิดใหม่ของการบริหารธุรกิจให้เติบโตอย่างยั่งยืน บนพื้นฐาน ของคุณงามความดี และการแบ่งปันสิ่งดี ๆ ให้แก่สังคม ดำเนินธุรกิจอย่างพอเพียง เอากำไรแต่พอประมาณ ไม่ต้องบาดเจ็บ กับการแข่งขันอย่างดุเดือด แบบกลยุทธ์น่านน้ำสีเลือด Red Ocean Strategy" ,
		"cover" : "http://th.jobsdb.com/TH/TH/V6HTML/JobSeeker/book/images/july09-03-ss.jpg" ,
		"download" : 34 ,
		"rating" : { "stars" : 3 , "raters" : 5 } 
	}, 
	{
		"id" : "3" ,
		"title" : "เซียนตรรกะ อัจฉริยะสมองซีกซ้าย" ,
		"author" : "รศ. ดร.ศักดา ดาดวง" ,
		"price" : 0 ,
		"categories" : "พัฒนาตนเอง" ,
		"description" : "หนังสือเล่มนี้รวบรวมโจทย์สนุก ๆ ปลุกเซลล์สมองไว้ เพื่อให้ผู้อ่าน โดยเฉพาะอย่างยิ่งผู้ที่ไม่ค่อยเก่งในเรื่องตรรกะ ได้ฝึกฝนพื้นฐานการคิดแบบเป็นเหตุและผลเชิงตรรกะมากขึ้น์" ,
		"cover" : "http://th.jobsdb.com/TH/TH/V6HTML/JobSeeker/book/images/feb09-01-ss.jpg" ,
		"download" : 168 ,
		"rating" : { "stars" : 5 , "raters" : 2 } 
	},
	{
		"id" : "4" ,
		"title" : "อาจารย์ในร้านคุกกี้ 2 " ,
		"author" : "นิ้วกลม" ,
		"price" : 0 ,
		"categories" : "วรรณกรรม" ,
		"description" : "หนังสือเล่มใหม่ของนักเขียนหน้าเก่า นิ้วกลม มาพร้อมกับแง่คิดในมุมใหม่ ๆ ที่เกิดจากการเก็บเกี่ยวทุกสิ่งทุกอย่างรอบตัวมาเป็นอาจารย์ของเขาได้อย่างน่ามหัศจรรย์" ,
		"cover" : "http://th.jobsdb.com/TH/TH/V6HTML/JobSeeker/book/images/oct09-02-ss.jpg" ,
		"download" : 223 ,
		"rating" : { "stars" : 4 , "raters" : 24 } 
	}, 
	{
		"id" : "5" ,
		"title" : "White Ocean Strategy กลยุทธ์น่านน้ำสีขาว 2" ,
		"author" : "ดนัย จันทร์เจ้าฉาย " ,
		"price" : 0 ,
		"categories" : "ธุรกิจ" ,
		"description" : "White Ocean Strategy แนวคิดใหม่ของการบริหารธุรกิจให้เติบโตอย่างยั่งยืน บนพื้นฐาน ของคุณงามความดี และการแบ่งปันสิ่งดี ๆ ให้แก่สังคม ดำเนินธุรกิจอย่างพอเพียง เอากำไรแต่พอประมาณ ไม่ต้องบาดเจ็บ กับการแข่งขันอย่างดุเดือด แบบกลยุทธ์น่านน้ำสีเลือด Red Ocean Strategy" ,
		"cover" : "http://th.jobsdb.com/TH/TH/V6HTML/JobSeeker/book/images/july09-03-ss.jpg" ,
		"download" : 34 ,
		"rating" : { "stars" : 3 , "raters" : 5 } 
	}, 
	{
		"id" : "6" ,
		"title" : "เซียนตรรกะ อัจฉริยะสมองซีกซ้าย 2" ,
		"author" : "รศ. ดร.ศักดา ดาดวง" ,
		"price" : 0 ,
		"categories" : "พัฒนาตนเอง" ,
		"description" : "หนังสือเล่มนี้รวบรวมโจทย์สนุก ๆ ปลุกเซลล์สมองไว้ เพื่อให้ผู้อ่าน โดยเฉพาะอย่างยิ่งผู้ที่ไม่ค่อยเก่งในเรื่องตรรกะ ได้ฝึกฝนพื้นฐานการคิดแบบเป็นเหตุและผลเชิงตรรกะมากขึ้น์" ,
		"cover" : "http://th.jobsdb.com/TH/TH/V6HTML/JobSeeker/book/images/feb09-01-ss.jpg" ,
		"download" : 168 ,
		"rating" : { "stars" : 5 , "raters" : 2 } 
	}
]